…
#### Cleaning up data

##### Removing empty rows and columns

``` r
 remove_empty(dailyActivity, which = c("rows", "cols"))
```

    ## # A tibble: 940 × 15
    ##            Id Activity…¹ Total…² Total…³ Track…⁴ Logge…⁵ VeryA…⁶ Moder…⁷ Light…⁸
    ##         <dbl> <chr>        <dbl>   <dbl>   <dbl>   <dbl>   <dbl>   <dbl>   <dbl>
    ##  1 1503960366 4/12/2016    13162    8.5     8.5        0    1.88   0.550    6.06
    ##  2 1503960366 4/13/2016    10735    6.97    6.97       0    1.57   0.690    4.71
    ##  3 1503960366 4/14/2016    10460    6.74    6.74       0    2.44   0.400    3.91
    ##  4 1503960366 4/15/2016     9762    6.28    6.28       0    2.14   1.26     2.83
    ##  5 1503960366 4/16/2016    12669    8.16    8.16       0    2.71   0.410    5.04
    ##  6 1503960366 4/17/2016     9705    6.48    6.48       0    3.19   0.780    2.51
    ##  7 1503960366 4/18/2016    13019    8.59    8.59       0    3.25   0.640    4.71
    ##  8 1503960366 4/19/2016    15506    9.88    9.88       0    3.53   1.32     5.03
    ##  9 1503960366 4/20/2016    10544    6.68    6.68       0    1.96   0.480    4.24
    ## 10 1503960366 4/21/2016     9819    6.34    6.34       0    1.34   0.350    4.65
    ## # … with 930 more rows, 6 more variables: SedentaryActiveDistance <dbl>,
    ## #   VeryActiveMinutes <dbl>, FairlyActiveMinutes <dbl>,
    ## #   LightlyActiveMinutes <dbl>, SedentaryMinutes <dbl>, Calories <dbl>, and
    ## #   abbreviated variable names ¹​ActivityDate, ²​TotalSteps, ³​TotalDistance,
    ## #   ⁴​TrackerDistance, ⁵​LoggedActivitiesDistance, ⁶​VeryActiveDistance,
    ## #   ⁷​ModeratelyActiveDistance, ⁸​LightActiveDistance

``` r
 remove_empty(dailysleep, which = c("rows", "cols"))
```

    ## # A tibble: 413 × 5
    ##            Id SleepDay              TotalSleepRecords TotalMinutesAsleep Total…¹
    ##         <dbl> <chr>                             <dbl>              <dbl>   <dbl>
    ##  1 1503960366 4/12/2016 12:00:00 AM                 1                327     346
    ##  2 1503960366 4/13/2016 12:00:00 AM                 2                384     407
    ##  3 1503960366 4/15/2016 12:00:00 AM                 1                412     442
    ##  4 1503960366 4/16/2016 12:00:00 AM                 2                340     367
    ##  5 1503960366 4/17/2016 12:00:00 AM                 1                700     712
    ##  6 1503960366 4/19/2016 12:00:00 AM                 1                304     320
    ##  7 1503960366 4/20/2016 12:00:00 AM                 1                360     377
    ##  8 1503960366 4/21/2016 12:00:00 AM                 1                325     364
    ##  9 1503960366 4/23/2016 12:00:00 AM                 1                361     384
    ## 10 1503960366 4/24/2016 12:00:00 AM                 1                430     449
    ## # … with 403 more rows, and abbreviated variable name ¹​TotalTimeInBed

``` r
 remove_empty(dailyweight, which = c("rows", "cols"))
```

    ## # A tibble: 67 × 8
    ##            Id Date                  WeightKg Weigh…¹   Fat   BMI IsMan…²   LogId
    ##         <dbl> <chr>                    <dbl>   <dbl> <dbl> <dbl> <lgl>     <dbl>
    ##  1 1503960366 5/2/2016 11:59:59 PM      52.6    116.    22  22.6 TRUE    1.46e12
    ##  2 1503960366 5/3/2016 11:59:59 PM      52.6    116.    NA  22.6 TRUE    1.46e12
    ##  3 1927972279 4/13/2016 1:08:52 AM     134.     294.    NA  47.5 FALSE   1.46e12
    ##  4 2873212765 4/21/2016 11:59:59 PM     56.7    125.    NA  21.5 TRUE    1.46e12
    ##  5 2873212765 5/12/2016 11:59:59 PM     57.3    126.    NA  21.7 TRUE    1.46e12
    ##  6 4319703577 4/17/2016 11:59:59 PM     72.4    160.    25  27.5 TRUE    1.46e12
    ##  7 4319703577 5/4/2016 11:59:59 PM      72.3    159.    NA  27.4 TRUE    1.46e12
    ##  8 4558609924 4/18/2016 11:59:59 PM     69.7    154.    NA  27.2 TRUE    1.46e12
    ##  9 4558609924 4/25/2016 11:59:59 PM     70.3    155.    NA  27.5 TRUE    1.46e12
    ## 10 4558609924 5/1/2016 11:59:59 PM      69.9    154.    NA  27.3 TRUE    1.46e12
    ## # … with 57 more rows, and abbreviated variable names ¹​WeightPounds,
    ## #   ²​IsManualReport
…
